<svg version="1.1" id="Layer_1" xmlns="http://www.w3.org/2000/svg" xmlns:xlink="http://www.w3.org/1999/xlink" x="0px" y="0px"
	 width="100%" viewBox="0 0 1472 832" enable-background="new 0 0 1472 832" xml:space="preserve">
<path fill="#5864FF" opacity="1.000000" stroke="none" 
	d="
M820.000000,833.000000 
	C546.666687,833.000000 273.833344,833.000000 1.000000,833.000000 
	C1.000000,555.666687 1.000000,278.333344 1.000000,1.000000 
	C491.666656,1.000000 982.333313,1.000000 1473.000000,1.000000 
	C1473.000000,278.333344 1473.000000,555.666687 1473.000000,833.000000 
	C1255.500000,833.000000 1038.000000,833.000000 820.000000,833.000000 
M305.739899,480.786713 
	C307.286163,493.622681 310.664124,505.951752 316.424744,517.536316 
	C327.648987,540.108154 345.328766,554.855469 370.260925,559.593323 
	C388.478119,563.055176 406.779297,561.497864 424.810303,557.358887 
	C438.528137,554.210022 450.959442,548.507568 460.982483,538.284973 
	C461.400238,537.858887 462.013031,537.623962 462.979279,537.024170 
	C461.795746,543.299438 460.709534,549.058655 459.621796,554.825928 
	C487.847382,554.825928 515.262207,554.825928 542.754517,554.825928 
	C568.908020,423.968903 594.987366,293.483154 621.075256,162.954468 
	C619.802429,162.704559 619.315979,162.525879 618.829407,162.525421 
	C592.997192,162.500641 567.164673,162.543579 541.333008,162.413208 
	C538.088196,162.396835 537.542542,164.114639 537.054443,166.604660 
	C533.724304,183.594193 530.334229,200.572052 526.936584,217.548279 
	C524.198547,231.228653 521.422852,244.901505 518.672363,258.535889 
	C509.320892,257.493225 500.425171,256.159424 491.480194,255.560562 
	C440.768250,252.165482 396.751984,266.997009 361.459442,304.455719 
	C335.891052,331.593475 321.069061,364.460175 312.089111,400.203979 
	C305.511444,426.385742 302.055817,452.872040 305.739899,480.786713 
M1146.732178,520.181152 
	C1147.119141,518.220886 1147.502075,516.259766 1147.893799,514.300415 
	C1169.494385,406.245697 1191.121948,298.196350 1212.648193,190.126801 
	C1214.417114,181.246307 1215.497803,172.228699 1216.906372,163.223434 
	C1214.951172,162.793640 1214.315430,162.532364 1213.679321,162.531555 
	C1188.516357,162.499863 1163.353271,162.544754 1138.190918,162.417236 
	C1134.846069,162.400299 1134.515381,164.349182 1134.042847,166.746307 
	C1130.341187,185.526978 1126.611816,204.302231 1122.853394,223.071640 
	C1120.478149,234.933716 1118.038452,246.782913 1115.611084,258.719116 
	C1114.452759,258.585968 1113.799194,258.537384 1113.154785,258.432922 
	C1090.493164,254.759216 1067.797241,253.412460 1045.036011,257.522430 
	C996.543884,266.278595 960.791138,293.219818 935.613281,334.840759 
	C916.224548,366.891815 906.136169,402.092377 902.198120,439.113190 
	C899.742432,462.198395 900.987122,485.087585 909.034668,507.139282 
	C919.028381,534.523743 937.284912,553.140076 966.459412,559.461731 
	C980.303833,562.461609 994.342957,561.637390 1008.250305,559.860413 
	C1027.084229,557.453979 1044.713135,551.967163 1058.482422,537.835754 
	C1058.729126,537.582458 1059.259155,537.605103 1059.921631,537.428345 
	C1058.792847,543.347168 1057.715942,548.993713 1056.583984,554.929199 
	C1084.591309,554.929199 1112.000977,554.929199 1139.696777,554.929199 
	C1142.001099,543.467896 1144.259277,532.236145 1146.732178,520.181152 
M733.942871,271.495880 
	C734.508545,268.424622 735.074219,265.353394 735.719727,261.848328 
	C707.760132,261.848328 680.216919,261.848328 652.447327,261.848328 
	C651.929626,264.305389 651.431885,266.564514 650.978943,268.832550 
	C638.787415,329.882904 626.603516,390.934753 614.411133,451.984924 
	C610.690552,470.614746 607.060364,489.188141 608.876953,508.430359 
	C611.399841,535.155090 626.739136,553.903564 653.121521,558.704834 
	C666.233154,561.091064 679.978394,561.390015 693.338196,560.705139 
	C715.676270,559.560059 736.539612,552.996094 754.436523,538.835938 
	C757.144165,536.693665 759.709106,534.371033 763.355469,531.267578 
	C753.520752,580.508362 743.930298,628.526245 734.306519,676.710999 
	C735.388977,676.936707 736.020691,677.182983 736.652588,677.183655 
	C762.482605,677.210876 788.312744,677.182007 814.142456,677.272400 
	C816.991028,677.282349 817.695923,675.995789 818.186951,673.489441 
	C822.347595,652.254089 826.670410,631.050659 830.908936,609.830505 
	C852.167236,503.401398 873.417542,396.970703 894.661560,290.538696 
	C896.542236,281.116669 898.357178,271.681519 900.288330,261.814636 
	C872.290161,261.814636 844.896912,261.814636 817.365479,261.814636 
	C816.944702,263.374298 816.471924,264.791321 816.183167,266.244904 
	C805.056824,322.245483 793.852295,378.230988 782.953491,434.275909 
	C781.556335,441.460327 778.703430,447.130096 773.470154,452.261383 
	C760.446899,465.030945 747.162292,477.357910 730.274353,484.929413 
	C721.322876,488.942657 712.002502,491.054657 702.083496,489.492371 
	C697.574097,488.782135 695.194092,486.226227 695.119141,481.805237 
	C695.037354,476.987213 694.777954,472.068665 695.572021,467.358459 
	C698.144714,452.097382 701.029541,436.884888 704.037537,421.701935 
	C713.904175,371.900391 723.878235,322.120148 733.942871,271.495880 
z"/>
<path fill="#FEFEFF" opacity="1.000000" stroke="none" 
	d="
M305.660400,480.344757 
	C302.055817,452.872040 305.511444,426.385742 312.089111,400.203979 
	C321.069061,364.460175 335.891052,331.593475 361.459442,304.455719 
	C396.751984,266.997009 440.768250,252.165482 491.480194,255.560562 
	C500.425171,256.159424 509.320892,257.493225 518.672363,258.535889 
	C521.422852,244.901505 524.198547,231.228653 526.936584,217.548279 
	C530.334229,200.572052 533.724304,183.594193 537.054443,166.604660 
	C537.542542,164.114639 538.088196,162.396835 541.333008,162.413208 
	C567.164673,162.543579 592.997192,162.500641 618.829407,162.525421 
	C619.315979,162.525879 619.802429,162.704559 621.075256,162.954468 
	C594.987366,293.483154 568.908020,423.968903 542.754517,554.825928 
	C515.262207,554.825928 487.847382,554.825928 459.621796,554.825928 
	C460.709534,549.058655 461.795746,543.299438 462.979279,537.024170 
	C462.013031,537.623962 461.400238,537.858887 460.982483,538.284973 
	C450.959442,548.507568 438.528137,554.210022 424.810303,557.358887 
	C406.779297,561.497864 388.478119,563.055176 370.260925,559.593323 
	C345.328766,554.855469 327.648987,540.108154 316.424744,517.536316 
	C310.664124,505.951752 307.286163,493.622681 305.660400,480.344757 
M398.014709,407.544495 
	C394.731384,423.731506 392.145050,439.994843 393.014618,456.599121 
	C393.447174,464.859039 395.287415,472.746582 399.853058,479.796631 
	C404.315552,486.687469 410.584381,489.913361 418.873108,489.339264 
	C427.993866,488.707489 435.865601,484.888245 443.317200,480.029968 
	C456.696381,471.307037 467.856964,460.091614 478.195465,448.065033 
	C480.346375,445.562836 482.068420,442.203156 482.726440,438.980988 
	C490.483490,400.996674 498.004303,362.964111 505.561829,324.939148 
	C505.807190,323.704651 505.781281,322.416168 505.910950,320.787292 
	C499.288849,319.920715 493.033447,319.117249 486.782349,318.281555 
	C456.567474,314.242218 433.747131,325.460114 418.294067,351.639130 
	C415.509430,356.356598 412.638519,361.177277 410.882050,366.317535 
	C406.318268,379.673431 402.352570,393.233673 398.014709,407.544495 
z"/>
<path fill="#FEFEFF" opacity="1.000000" stroke="none" 
	d="
M1146.624756,520.592773 
	C1144.259277,532.236145 1142.001099,543.467896 1139.696777,554.929199 
	C1112.000977,554.929199 1084.591309,554.929199 1056.583984,554.929199 
	C1057.715942,548.993713 1058.792847,543.347168 1059.921631,537.428345 
	C1059.259155,537.605103 1058.729126,537.582458 1058.482422,537.835754 
	C1044.713135,551.967163 1027.084229,557.453979 1008.250305,559.860413 
	C994.342957,561.637390 980.303833,562.461609 966.459412,559.461731 
	C937.284912,553.140076 919.028381,534.523743 909.034668,507.139282 
	C900.987122,485.087585 899.742432,462.198395 902.198120,439.113190 
	C906.136169,402.092377 916.224548,366.891815 935.613281,334.840759 
	C960.791138,293.219818 996.543884,266.278595 1045.036011,257.522430 
	C1067.797241,253.412460 1090.493164,254.759216 1113.154785,258.432922 
	C1113.799194,258.537384 1114.452759,258.585968 1115.611084,258.719116 
	C1118.038452,246.782913 1120.478149,234.933716 1122.853394,223.071640 
	C1126.611816,204.302231 1130.341187,185.526978 1134.042847,166.746307 
	C1134.515381,164.349182 1134.846069,162.400299 1138.190918,162.417236 
	C1163.353271,162.544754 1188.516357,162.499863 1213.679321,162.531555 
	C1214.315430,162.532364 1214.951172,162.793640 1216.906372,163.223434 
	C1215.497803,172.228699 1214.417114,181.246307 1212.648193,190.126801 
	C1191.121948,298.196350 1169.494385,406.245697 1147.893799,514.300415 
	C1147.502075,516.259766 1147.119141,518.220886 1146.624756,520.592773 
M990.140320,439.831635 
	C990.096558,445.492035 989.317261,451.269165 990.192505,456.783691 
	C991.324158,463.913605 992.967529,471.190369 995.859985,477.756653 
	C999.728760,486.539368 1007.279724,490.294800 1017.073608,489.246826 
	C1025.780762,488.315094 1033.334839,484.606995 1040.484253,479.922913 
	C1053.697021,471.266296 1064.768921,460.201447 1074.983765,448.292877 
	C1077.234497,445.668945 1079.047363,442.165588 1079.747070,438.794312 
	C1085.561279,410.778870 1091.075073,382.701050 1096.661621,354.638428 
	C1098.860596,343.593109 1101.013672,332.538666 1103.208496,321.382141 
	C1102.148804,321.001617 1101.560303,320.671753 1100.938110,320.585449 
	C1095.335327,319.808472 1089.724487,319.091309 1084.120239,318.324493 
	C1054.900146,314.326202 1032.099854,324.372650 1016.592468,349.674255 
	C1012.525269,356.310272 1008.981323,363.366638 1006.038940,370.573669 
	C997.100769,392.466553 992.635803,415.462952 990.140320,439.831635 
z"/>
<path fill="#FEFEFF" opacity="1.000000" stroke="none" 
	d="
M733.876953,271.913818 
	C723.878235,322.120148 713.904175,371.900391 704.037537,421.701935 
	C701.029541,436.884888 698.144714,452.097382 695.572021,467.358459 
	C694.777954,472.068665 695.037354,476.987213 695.119141,481.805237 
	C695.194092,486.226227 697.574097,488.782135 702.083496,489.492371 
	C712.002502,491.054657 721.322876,488.942657 730.274353,484.929413 
	C747.162292,477.357910 760.446899,465.030945 773.470154,452.261383 
	C778.703430,447.130096 781.556335,441.460327 782.953491,434.275909 
	C793.852295,378.230988 805.056824,322.245483 816.183167,266.244904 
	C816.471924,264.791321 816.944702,263.374298 817.365479,261.814636 
	C844.896912,261.814636 872.290161,261.814636 900.288330,261.814636 
	C898.357178,271.681519 896.542236,281.116669 894.661560,290.538696 
	C873.417542,396.970703 852.167236,503.401398 830.908936,609.830505 
	C826.670410,631.050659 822.347595,652.254089 818.186951,673.489441 
	C817.695923,675.995789 816.991028,677.282349 814.142456,677.272400 
	C788.312744,677.182007 762.482605,677.210876 736.652588,677.183655 
	C736.020691,677.182983 735.388977,676.936707 734.306519,676.710999 
	C743.930298,628.526245 753.520752,580.508362 763.355469,531.267578 
	C759.709106,534.371033 757.144165,536.693665 754.436523,538.835938 
	C736.539612,552.996094 715.676270,559.560059 693.338196,560.705139 
	C679.978394,561.390015 666.233154,561.091064 653.121521,558.704834 
	C626.739136,553.903564 611.399841,535.155090 608.876953,508.430359 
	C607.060364,489.188141 610.690552,470.614746 614.411133,451.984924 
	C626.603516,390.934753 638.787415,329.882904 650.978943,268.832550 
	C651.431885,266.564514 651.929626,264.305389 652.447327,261.848328 
	C680.216919,261.848328 707.760132,261.848328 735.719727,261.848328 
	C735.074219,265.353394 734.508545,268.424622 733.876953,271.913818 
z"/>
<path fill="#5965FF" opacity="1.000000" stroke="none" 
	d="
M398.081482,407.128418 
	C402.352570,393.233673 406.318268,379.673431 410.882050,366.317535 
	C412.638519,361.177277 415.509430,356.356598 418.294067,351.639130 
	C433.747131,325.460114 456.567474,314.242218 486.782349,318.281555 
	C493.033447,319.117249 499.288849,319.920715 505.910950,320.787292 
	C505.781281,322.416168 505.807190,323.704651 505.561829,324.939148 
	C498.004303,362.964111 490.483490,400.996674 482.726440,438.980988 
	C482.068420,442.203156 480.346375,445.562836 478.195465,448.065033 
	C467.856964,460.091614 456.696381,471.307037 443.317200,480.029968 
	C435.865601,484.888245 427.993866,488.707489 418.873108,489.339264 
	C410.584381,489.913361 404.315552,486.687469 399.853058,479.796631 
	C395.287415,472.746582 393.447174,464.859039 393.014618,456.599121 
	C392.145050,439.994843 394.731384,423.731506 398.081482,407.128418 
z"/>
<path fill="#5965FF" opacity="1.000000" stroke="none" 
	d="
M990.172119,439.365326 
	C992.635803,415.462952 997.100769,392.466553 1006.038940,370.573669 
	C1008.981323,363.366638 1012.525269,356.310272 1016.592468,349.674255 
	C1032.099854,324.372650 1054.900146,314.326202 1084.120239,318.324493 
	C1089.724487,319.091309 1095.335327,319.808472 1100.938110,320.585449 
	C1101.560303,320.671753 1102.148804,321.001617 1103.208496,321.382141 
	C1101.013672,332.538666 1098.860596,343.593109 1096.661621,354.638428 
	C1091.075073,382.701050 1085.561279,410.778870 1079.747070,438.794312 
	C1079.047363,442.165588 1077.234497,445.668945 1074.983765,448.292877 
	C1064.768921,460.201447 1053.697021,471.266296 1040.484253,479.922913 
	C1033.334839,484.606995 1025.780762,488.315094 1017.073608,489.246826 
	C1007.279724,490.294800 999.728760,486.539368 995.859985,477.756653 
	C992.967529,471.190369 991.324158,463.913605 990.192505,456.783691 
	C989.317261,451.269165 990.096558,445.492035 990.172119,439.365326 
z"/>
</svg>